name      ,mp_cost,effect                                                                                                                    ,attribute,id
Heal      ,3      ,Heals 30 to 40HP on 1 ally                                                                                                ,int      ,heal
HealMore  ,5      ,Heals 75 to 90HP on 1 ally                                                                                                ,int      ,healmore
HealAll   ,7      ,Fully heals 1 ally                                                                                                        ,int      ,healall
HealUs    ,18     ,Heals 90 to 120 HP to all allies                                                                                          ,int      ,healus
HealUsAll ,36     ,Heals all allies fully                                                                                                    ,int      ,healusall
Antidote  ,2      ,Heal poison                                                                                                               ,int      ,antidote
Numboff   ,2      ,Cures paralysis and sleep                                                                                                 ,int      ,numboff
Curse Off ,2      ,Removes curses                                                                                                            ,int      ,curse off
Surge     ,7      ,Cures any ailment to all allies                                                                                           ,int      ,surge
Vivify    ,10     ,"Revives an ally, doesn't always work"                                                                                    ,int      ,vivify
Revive    ,20     ,Revives an ally                                                                                                           ,int      ,revive
Meditate  ,8      ,Restores 500HP to caster                                                                                                  ,int      ,meditate
Cover     ,       ,Covers physical attacks aimed at party                                                                                    ,def      ,cover
Guardian  ,       ,Covers party against all attacks                                                                                          ,def      ,guardian
Strong D  ,       ,Caster takes less damage from any attack                                                                                  ,def      ,strong d
MagicBack ,       ,Reflects 1 offensive spell back during round                                                                              ,def      ,magicback
Bounce    ,       ,Reflects all offensive spells during round                                                                                ,int/def  ,bounce
War Cry   ,       ,May paralyse enemies in fear                                                                                              ,atk      ,war cry
Charge Up ,0      ,Next round's physical attack is stronger                                                                                  ,atk      ,charge up
Slow      ,2      ,Reduces agility of 1 enemy                                                                                                ,agl      ,slow
Slowall   ,4      ,Reduces agility of all enemies                                                                                            ,agl      ,slowall
StopSpell ,3      ,Suspends all the enemies from casting spells                                                                              ,int      ,stopspell
Odd Dance ,       ,Removes some MP from 1 monster                                                                                            ,int      ,odd dance
Leg Sweep ,2      ,"Makes monsters fall, can't attack for that round, ineffective on flying  enemies"                                        ,atk      ,leg sweep
BigTrip   ,3      ,Trips all enemies (except flying ones)                                                                                    ,atk      ,bigtrip
Sleep air ,5      ,Makes enemies fall asleep                                                                                                 ,-        ,sleep air
Sleep     ,3      ,Puts an enemy to sleep                                                                                                    ,int      ,sleep
Sleepall  ,5      ,Puts all enemies to sleep                                                                                                 ,int      ,sleepall
BladeD    ,3      ,"Counterattacks using the same move the enemy did, doesn't always  succeed"                                               ,atk/def  ,bladed
Ultradown ,7      ,Greatly lowers the enemy stats                                                                                            ,-        ,ultradown
Sap       ,2      ,Lowers 1 enemy's defense                                                                                                  ,int      ,sap
Defense   ,4      ,Lowers all enemies defense                                                                                                ,int      ,defense
Focus     ,0      ,2 attacks on next round                                                                                                   ,-        ,focus
BeDragon  ,9      ,Transforms the caster into a huge dragon                                                                                  ,int/atk  ,bedragon
Upper     ,2      ,Increases defense for 1 ally                                                                                              ,int      ,upper
Increase  ,3      ,Increases defense for all allies                                                                                          ,int      ,increase
Barrier   ,3      ,All allies become more resistant to breath attacks                                                                        ,int      ,barrier
Surround  ,3      ,Engulfs all the enemies with an illusion                                                                                  ,int      ,surround
Radiant   ,2      ,Blinds all enemies with its bright light                                                                                  ,int      ,radiant
Whistle   ,0      ,Summons monsters (same as shinyharp item)                                                                                 ,int      ,whistle
Sandstorm ,       ,"attacks all enemies with a sandstorm, reduces hit% if succeeds"                                                          ,agl      ,sandstorm
Ironize   ,2      ,Turns all allies into a protective lump of iron                                                                           ,int      ,ironize
Tailwind  ,6      ,Reflects back Air attack to an enemy                                                                                      ,def      ,tailwind
Stormwind ,10     ,Reflects back Air attacks to all enemies                                                                                  ,def      ,stormwind
Curse     ,3      ,Curses all enemies                                                                                                        ,int      ,curse
Sidestep  ,1      ,Sidesteps an attack                                                                                                       ,agl      ,sidestep
Chance    ,20     ,"A random spell, can be good or bad (see bottom for possible effects)"                                                    ,int      ,chance
Blaze     ,2      ,Inflicts damage with a small fireball                                                                                     ,int      ,blaze
Blazemore ,4      ,Inflicts damage with a giant fireball                                                                                     ,int      ,blazemore
Blazemost ,10     ,Inflicts damage with pillars of fire                                                                                      ,int      ,blazemost
Firebal   ,4      ,Inflicts damage to all enemies with a small blaze                                                                         ,int      ,firebal
Firebane  ,6      ,Inflicts damage to all enemies with a big blaze                                                                           ,int      ,firebane
Firebolt  ,10     ,Inflicts damage to all enemies with a huge blaze                                                                          ,int      ,firebolt
Icebolt   ,3      ,Cold attack on all enemies                                                                                                ,int      ,icebolt
Snowstorm ,5      ,Turns all enemies into ice                                                                                                ,int      ,snowstorm
Blizzard  ,12     ,Attacks all enemies with a frigid blizzard                                                                                ,int      ,blizzard
SuckAll   ,2      ,Sucks all the air (attacks) to inflict damage on all enemies                                                              ,atk      ,suckall
Fireair   ,2      ,Breathes out fire to inflict damage on all enemies                                                                        ,atk      ,fireair
Blazeair  ,4      ,Blows out a blaze to inflict damage on all enemies                                                                        ,atk      ,blazeair
Scorching ,8      ,Burns all enemies with a devastating flame                                                                                ,atk      ,scorching
Whitefire ,16     ,Attacks all enemies with an unimaginable blaze                                                                            ,atk      ,whitefire
Frigidair ,2      ,Inflicts damage to all enemies with its frigid breath                                                                     ,atk      ,frigidair
Iceair    ,4      ,Freezes all enemies                                                                                                       ,atk      ,iceair
Icestorm  ,8      ,Inflicts damage to all enemies with a violent icestorm                                                                    ,atk      ,icestorm
Whiteair  ,16     ,Attacks all enemies with an incandecent air                                                                               ,atk      ,whiteair
Infernos  ,2      ,Inflicts damages to all enemies with a whirlwind                                                                          ,int      ,infernos
Infermore ,4      ,Influcts damage to all enemies with a tornado                                                                             ,int      ,infermore
Infermost ,8      ,Inflicts damage to all enemies with a hurricane                                                                           ,int      ,infermost
Bolt      ,5      ,Strikes all enemies with lightning                                                                                        ,int      ,bolt
Zap       ,10     ,Strikes all enemies with a thunderbolt                                                                                    ,int      ,zap
Thordain  ,15     ,Strike all enemies with thunderbolts                                                                                      ,int      ,thordain
Bang      ,5      ,Inflicts damage to all enemies with a small explosion                                                                     ,int      ,bang
Boom      ,8      ,Inflicts damage to all enemies with a medium explosion                                                                    ,int      ,boom
Explodet  ,15     ,Inflicts damage to all enemies with a huge explosion                                                                      ,int      ,explodet
Beat      ,4      ,Instantly knocks out an enemy (can fail)                                                                                  ,int      ,beat
Defeat    ,7      ,Instantly knocks out all enemies (can fail)                                                                               ,int      ,defeat
Callhelp  ,4      ,Calls for a backup                                                                                                        ,int      ,callhelp
Yellhelp  ,8      ,"Calls a group of monsters for help (more monsters, less failure  chances)"                                               ,int      ,yellhelp
Biattack  ,3      ,Attacks twice in a turn                                                                                                   ,atk      ,biattack
Quadhits  ,6      ,Attacks 4 times in a turn                                                                                                 ,atk      ,quadhits
HighJump  ,5      ,Jump in the air and attack next turn                                                                                      ,atk      ,highjump
K.O. Dance,6      ,Instantly knocks out all enemies                                                                                          ,atk      ,k.o. dance
TatsuCall ,20     ,Summons Tatsu monsters to attack the enemy                                                                                ,int      ,tatsucall
BazooCall ,20     ,Summons Bazoo monsters to attack the enemy                                                                                ,int      ,bazoocall
Fireslash ,3      ,Burning blade sword attack                                                                                                ,atk      ,fireslash
Iceslash  ,3      ,Freezing ice sword attack                                                                                                 ,atk      ,iceslash
Boltslash ,3      ,Lightning sword attack                                                                                                    ,atk      ,boltslash
Slimeblow ,3      ,inflicts great damage to slimes                                                                                           ,atk      ,slimeblow
Bug Blow  ,3      ,inflicts great damage to bug                                                                                              ,atk      ,bug blow
Cleancut  ,3      ,inflicts great damage to materials                                                                                        ,atk      ,cleancut
Metalcut  ,3      ,inflicts great damage to metal-type enemies                                                                               ,atk      ,metalcut
Evilslash ,3      ,"attack like a ruthless demon (low hit rate, helluva damage boost  compared to normal attack)"                            ,atk      ,evilslash
Branching ,3      ,inflicts great damage to trees                                                                                            ,atk      ,branching
Birdblow  ,3      ,inflicts great damage to birds                                                                                            ,atk      ,birdblow
Zombie cut,3      ,inflicts great damage to undeads                                                                                          ,atk      ,zombie cut
Devilcut  ,3      ,inflicts great damage to devils                                                                                           ,atk      ,devilcut
Beastcut  ,3      ,inflicts great damage to beasts                                                                                           ,atk      ,beastcut
Drakslash ,3      ,Inflicts great damage to dragons                                                                                          ,atk      ,drakslash
Rainslash ,5      ,Attacks all enemies with 1 attack                                                                                         ,atk      ,rainslash
Berserker ,1      ,Attacks like there's no tomorrow                                                                                          ,atk      ,berserker
Poisonhit ,3      ,Poisons the enemy that the ally attacked                                                                                  ,atk      ,poisonhit
Napattack ,3      ,Sends the enemy that the ally attacked to sleep                                                                           ,atk      ,napattack
Paralyse  ,3      ,Paralyses the enemy that the ally attacked                                                                                ,atk      ,paralyse
Gigaslash ,20     ,Most destructive sword attack                                                                                             ,atk      ,gigaslash
RockThrow ,5      ,Throws a huge rock on all enemies                                                                                         ,atk      ,rockthrow
Massacre  ,       ,Inflicts great damage to an ally or enemy                                                                                 ,atk      ,massacre
Imitate   ,4      ,Imitates the enemy's attack                                                                                               ,int      ,imitate
Windbeast ,3      ,Attacks an enemy with a violent whirlwind                                                                                 ,atk      ,windbeast
Vaccum    ,6      ,Attacks all enemeies with a giant vaccum                                                                                  ,atk      ,vaccum
Multicut  ,20     ,Inflicts damage to all enemeies with many cuts                                                                            ,atk      ,multicut
HellBlast ,25     ,Hell powered lightning blast attacks all foes                                                                             ,int      ,hellblast
BigBang   ,30     ,Create a huge explosion to attack all enemies                                                                             ,int      ,bigbang
MegaMagic ,all(!) ,"The most powerful spell to affect all enemies (the only attack known  that can exceed 2000 damage in 1 blow, for 999 MP)",int      ,megamagic
