digraph "alembic_version" {
  graph [
    rankdir="RL"
    bgcolor="#ffffff"
    nodesep="0.18"
    ranksep="0.46"
    fontname="Helvetica"
    fontsize="11"
    ration="compress"
  ];
  node [
    fontname="Helvetica"
    fontsize="11"
    shape="plaintext"
  ];
  edge [
    arrowsize="0.8"
  ];
  "alembic_version" [
   label=<
    <TABLE BORDER="2" CELLBORDER="1" CELLSPACING="0" BGCOLOR="#ffffff">
      <TR><TD COLSPAN="4"  BGCOLOR="#f5f5f5"><TABLE BORDER="0" CELLSPACING="0"><TR><TD ALIGN="LEFT"><B>alembic_version</B></TD><TD ALIGN="RIGHT">[table]</TD></TR></TABLE></TD></TR>
      <TR><TD PORT="version_num" COLSPAN="2" ALIGN="LEFT"><TABLE BORDER="0" CELLSPACING="0" ALIGN="LEFT"><TR ALIGN="LEFT"><TD ALIGN="LEFT" FIXEDSIZE="TRUE" WIDTH="15" HEIGHT="16"><IMG SRC="../../images/primaryKeys.png"/></TD><TD ALIGN="LEFT" FIXEDSIZE="TRUE" WIDTH="96" HEIGHT="16">version_num</TD></TR></TABLE></TD><TD PORT="version_num.type" ALIGN="LEFT">varchar[32]</TD></TR>
      <TR><TD ALIGN="LEFT" BGCOLOR="#ffffff">&lt; 0</TD><TD ALIGN="RIGHT" BGCOLOR="#ffffff">1 row</TD><TD ALIGN="RIGHT" BGCOLOR="#ffffff">0 &gt;</TD></TR>
    </TABLE>>
    URL="tables/alembic_version.html"
    target="_top"
    tooltip="alembic_version"
  ];
}
