id,part1,part2,part3,part4,part5
bigbang,Explodet,WhiteFire,WhiteAir,,
boltslash,ChargeUP,Lightning,,,
demagic,Surge,UltraDown,,,
eerielite,Curse,Radiant,,,
farewell,Sacrifice,Revive,,,
fireslash,Blazemore,ChargeUP,,,
focus,ChargeUP,SuckAir,Meditate,,
gigaslash,FireSlash,BoltSlash,VacuSlash,IceSlash,
hellblast,Thordain,Lightning,,,
hustle,HealAll,SideStep,,,
iceslash,ChargeUP,SnowStorm,,,
imitate,Transform,Focus,,,
kamikaze,ChargeUP,Ramming,,,
lifedance,Hustle,Sacrifice,,,
lifesong,Revive,WarCry,,,
meditate,Guardian,StrongD,,,
megamagic,Blazemost,Blizzard,Explodet,Firebolt,Infermost
multicut,ZombieCut,Vacuum,,,
palsyair,SleepAir,PoisonAir,,,
paralyze,PoisonHit,NapAttack,,,
rainslash,BiAttack,SquallHit,,,
surge,Antidote,NumbOff,DeChaos,CurseOff,
ultradown,Surround,Defence,SlowAll,,
vacuslash,ChargeUP,WindBeast,,,
