id,level,hp,mp,attack,defense,intelligence,agility
ahhh,10,,,60.0,,,60.0
antidote,5,,21.0,,,20.0,
bang,4,,13.0,,,26.0,
barrier,18,,76.0,,,70.0,
bazoocall,35,,160.0,,,180.0,
beastcut,12,62.0,,68.0,,,72.0
beat,16,,58.0,,,76.0,
bedragon,28,,124.0,,,160.0,
beserker,14,98.0,,84.0,84.0,,
biattack,19,88.0,,98.0,,,112.0
bigbang,36,196.0,196.0,,,208.0,
bigtrip,12,66.0,,63.0,,,48.0
birdblow,12,62.0,,68.0,,,72.0
bladed,14,98.0,,84.0,84.0,,84.0
blaze,1,,7.0,,,20.0,
blazeair,10,70.0,,,,,
blazemore,13,,46.0,,,64.0,
blazemost,28,,112.0,,,146.0,
blizzard,25,,88.0,,,110.0,
bolt,6,,20.0,,,35.0,
boltslash,11,77.0,34.0,66.0,,42.0,
boom,14,,50.0,,,68.0,
bounce,20,,84.0,,,78.0,
branching,12,62.0,,68.0,,,72.0
callhelp,17,84.0,42.0,,,54.0,68.0
chance,40,,224.0,,,236.0,
chargeup,14,98.0,,,84.0,,
cleancut,12,62.0,,68.0,,,72.0
cover,5,35.0,,,30.0,,30.0
curse,15,,65.0,,,82.0,82.0
curseoff,7,,27.0,,,24.0,
danceshut,16,100.0,,,,,120.0
dechaos,6,,24.0,,,22.0,
defeat,24,,80.0,,,98.0,
defence,8,,36.0,,,32.0,
demagic,20,,100.0,,,140.0,
devilcut,12,64.0,,58.0,,48.0,62.0
diagocall,25,,100.0,,,120.0,
dodge,18,126.0,,108.0,108.0,,108.0
drakslash,12,68.0,,72.0,,,62.0
eerielite,14,,65.0,,,84.0,84.0
evilslash,15,106.0,,90.0,,,
explodet,29,,120.0,,,158.0,
farewell,32,,188.0,,,176.0,
fireair,3,21.0,,,,,
firebal,3,,11.0,,,23.0,
firebane,10,,34.0,,,52.0,
firebolt,26,,96.0,,,122.0,
fireslash,11,77.0,34.0,66.0,,42.0,
focus,18,126.0,,,108.0,108.0,108.0
frigidair,3,21.0,,,,,
gigaslash,33,231.0,164.0,198.0,,198.0,198.0
guardian,12,84.0,,,72.0,,72.0
heal,1,,7.0,,,6.0,
healall,16,,82.0,,,80.0,
healmore,10,,52.0,,,48.0,
healus,20,,140.0,,,120.0,
healusall,28,,196.0,,,160.0,
hellblast,34,184.0,184.0,,,196.0,
highjump,20,140.0,,120.0,,,120.0
hustle,18,114.0,,,,96.0,130.0
iceair,10,70.0,,,,,
icebolt,5,,16.0,,,30.0,
iceslash,11,77.0,34.0,66.0,,42.0,60.0
icestorm,20,140.0,,,,,
imitate,21,147.0,147.0,126.0,126.0,126.0,126.0
increase,6,,27.0,,,12.0,
infermore,11,,38.0,,,56.0,
infermost,27,,104.0,,,134.0,
infernos,2,,10.0,,,21.0,
ironize,15,,62.0,,,58.0,
k.o.dance,20,140.0,72.0,,,120.0,120.0
kamikaze,18,126.0,,108.0,108.0,,
legsweep,6,32.0,,31.0,,,48.0
lifedance,30,210.0,,,,180.0,180.0
lifesong,27,198.0,94.0,,,162.0,145.0
lightning,10,65.0,,90.0,,,52.0
luredance,14,84.0,,,,,98.0
lushlicks,7,55.0,,,,,67.0
magicback,16,,68.0,,,62.0,
magicwall,19,,80.0,,,74.0,
mapmagic,10,,40.0,,,34.0,
massacre,12,84.0,,72.0,,,72.0
meditate,26,182.0,,,156.0,156.0,
megamagic,38,,210.0,,,224.0,
metalcut,12,68.0,,72.0,,,62.0
mouthshut,17,120.0,,100.0,,,140.0
multicut,28,154.0,140.0,168.0,,148.0,168.0
napattack,7,49.0,,42.0,,42.0,
numboff,8,,30.0,,,26.0,
odddance,10,54.0,27.0,,,49.0,63.0
palsyair,16,112.0,,,,96.0,
panicall,12,,56.0,,,49.0,
panidance,13,74.0,,,,78.0,78.0
paralyze,9,63.0,,54.0,,54.0,
poisonair,14,98.0,,,,84.0,
poisongas,9,63.0,,,,54.0,
poisonhit,5,35.0,,30.0,,30.0,
psycheup,12,72.0,,82.0,68.0,,
quadhits,24,124.0,,112.0,,,136.0
radiant,12,,42.0,,,72.0,72.0
rainslash,15,92.0,,90.0,,,96.0
ramming,12,70.0,,,,,70.0
revive,27,,174.0,,,152.0,
robmagic,7,,32.0,,,28.0,
rockthrow,16,124.0,,102.0,,,
sacrifice,1,,7.0,,,6.0,
samsicall,30,,130.0,,,150.0,
sandstorm,10,70.0,,,,,70.0
sap,4,,18.0,,,15.0,
scorching,20,140.0,,,,,
sheldodge,5,,21.0,,,20.0,
sicklick,13,81.0,,,,,94.0
sidestep,9,63.0,,,,,54.0
sleep,4,,24.0,,,16.0,
sleepair,10,70.0,,,,60.0,
sleepall,11,,52.0,,,46.0,
slow,3,,16.0,,,14.0,
slowall,7,,32.0,,,28.0,
smashlime,12,62.0,,68.0,,,72.0
snowstorm,12,,42.0,,,60.0,
speed,1,,10.0,,,8.0,
speedup,5,,24.0,,,20.0,
squallhit,12,72.0,,68.0,,,82.0
stepguard,10,,40.0,,,34.0,
stopspell,9,,44.0,,,38.0,
stormwind,19,140.0,,,126.0,,140.0
strongd,14,98.0,,,84.0,,
suckair,17,119.0,,,102.0,,
suckall,13,91.0,,,78.0,,
surge,23,,130.0,,,170.0,
surround,10,,47.0,,,41.0,
tailwind,11,75.0,,,84.0,,70.0
takemagic,13,,58.0,,,52.0,
tatsucall,20,,70.0,,,90.0,
thickfog,22,,120.0,60.0,,160.0,
thordain,30,,128.0,,,174.0,
transform,21,,92.0,,,88.0,
twinhits,17,,72.0,,,66.0,
twinslash,8,80.0,,80.0,,,
ultradown,21,,110.0,,,150.0,
upper,2,,14.0,,,12.0,
vacuslash,11,77.0,34.0,66.0,,42.0,
vacuum,19,112.0,,114.0,,,132.0
vivify,14,,63.0,,,54.0,
warcry,14,120.0,,,,,
whistle,4,,28.0,,,24.0,
whiteair,30,210.0,,,,,
whitefire,30,210.0,,,,,
windbeast,13,74.0,,60.0,,,84.0
yellhelp,23,128.0,64.0,,,74.0,82.0
zap,15,,54.0,,,72.0,
zombiecut,12,64.0,,58.0,,48.0,62.0
